<?xml version="1.0" encoding="UTF-8"?>
<session version="1.0">
<refactoring comment="Rename Java project &apos;MDRough&apos; to &apos;DanceWithMD&apos;&#x0D;&#x0A;- Original element: &apos;MDRough&apos;&#x0D;&#x0A;- Renamed element: &apos;MDRough&apos;&#x0D;&#x0A;- Update references to refactored element" description="Rename Java project &apos;MDRough&apos;" flags="7" id="org.eclipse.jdt.ui.rename.java.project" input="=MDRough" name="DanceWithMD" references="true" stamp="1375341975743" version="1.0"/>
</session>